Assignment 5 - DESeq2
…
## fitting model and testing

3. Annotating results to construct a labeled volcano plot

Using the results generated by DESeq2, convert it to a
tibble and add one additional column that denotes whether a
gene is either: 1. Upregulated and significant at a given padj
threshold, 2.Downregulated and significant at a given padj threshold, or
3. Not significant at a given padj threshold. Name this column
volc_plot_status. Ensure the values for these labels are
UP, DOWN, and NS, respectively.  Have your function take the
DESeq2 results as well as a user-defined threshold for padj and set it
at .10.

## # A tibble: 55,416 × 7
##    genes          volc_plot_status log2FoldChange      padj baseMean lfcSE  stat
##    <chr>          <chr>                     <dbl>     <dbl>    <dbl> <dbl> <dbl>
##  1 ENSMUSG000000… DOWN                      -9.86 1.26e-298   11732. 0.265 -37.2
##  2 ENSMUSG000000… UP                         6.18 1.11e-252    3547. 0.181  34.2
##  3 ENSMUSG000000… UP                         6.06 1.38e-201    2360. 0.198  30.6
##  4 ENSMUSG000000… DOWN                      -5.37 2.11e-196    3274. 0.178 -30.2
##  5 ENSMUSG000000… DOWN                      -6.77 1.52e-194   25698. 0.226 -30.0
##  6 ENSMUSG000000… UP                         5.30 1.81e-185    5568. 0.181  29.3
##  7 ENSMUSG000000… UP                         4.55 2.21e-167   24756. 0.163  27.9
##  8 ENSMUSG000000… DOWN                      -5.17 6.25e-164    2653. 0.187 -27.6
##  9 ENSMUSG000000… UP                         4.40 6.91e-159   11343. 0.162  27.1
## 10 ENSMUSG000000… DOWN                      -4.07 2.13e-150    6398. 0.154 -26.4
## # ℹ 55,406 more rows
…
#use tail to display the bottom of the list
tail(rnk_list)

##       Cpa1      Bmp10      Troap    Or51af1      Tnni1       Dlk1 
##  -8.798726  -9.230116  -9.251710  -9.392386  -9.859226 -10.275799

Perform a GSEA using a ranked list log2FoldChange values for all
genes discovered in the DESeq2 results against the C2 Canonical Pathways
gene set collection. As recommended, please set the minSize and maxSize
parameters to 15 and 500, respectively. Before running fgsea, you will
have to load the GMT pathways file in an appropriate format for
fgsea. Otherwise, run fgsea using default parameters and
the fgsea() function.

## # A tibble: 986 × 8
##    pathway                  pval     padj log2err     ES   NES  size leadingEdge
##    <chr>                   <dbl>    <dbl>   <dbl>  <dbl> <dbl> <int> <list>     
##  1 REACTOME_THE_CITRIC… 9.61e-22 9.48e-19    1.20  0.623  2.86   163 <chr [130]>
##  2 REACTOME_MITOTIC_SP… 4.64e-21 2.29e-18    1.19 -0.705 -2.75   107 <chr [32]> 
##  3 REACTOME_CELL_CYCLE… 3.99e-20 1.31e-17    1.16 -0.549 -2.42   275 <chr [62]> 
##  4 REACTOME_AMPLIFICAT… 1.33e-18 3.27e-16    1.11 -0.724 -2.74    90 <chr [31]> 
##  5 REACTOME_RESOLUTION… 4.08e-18 8.05e-16    1.10 -0.671 -2.66   116 <chr [36]> 
##  6 REACTOME_MITOTIC_PR… 7.07e-18 9.96e-16    1.09 -0.585 -2.47   187 <chr [42]> 
##  7 REACTOME_RESPIRATOR… 6.31e-18 9.96e-16    1.10  0.637  2.77   119 <chr [103]>
##  8 REACTOME_MITOTIC_ME… 1.86e-17 2.30e-15    1.08 -0.559 -2.41   219 <chr [41]> 
##  9 REACTOME_RESPIRATOR… 2.13e-17 2.34e-15    1.08  0.678  2.86    96 <chr [87]> 
## 10 REACTOME_SEPARATION… 1.34e-15 1.33e-13    1.02 -0.569 -2.40   181 <chr [36]> 
## # ℹ 976 more rows
…
